\relax 
\providecommand\babel@aux[2]{}
\@nameuse{bbl@beforestart}
\catcode `"\active 
\catcode `<\active 
\catcode `>\active 
\@nameuse{es@quoting}
\babel@aux{spanish}{}
\@writefile{toc}{\contentsline {chapter}{\numberline {1}Introducción}{1}{}\protected@file@percent }
\@writefile{lof}{\addvspace {10\p@ }}
\@writefile{lot}{\addvspace {10\p@ }}
\newlabel{chap:memoria}{{1}{1}}
\@writefile{toc}{\contentsline {section}{\numberline {1.1}Presentación}{1}{}\protected@file@percent }
\newlabel{sec:presentacion}{{1.1}{1}}
\@writefile{toc}{\contentsline {subsection}{\numberline {1.1.1}¿Que es PictorSale?}{1}{}\protected@file@percent }
\newlabel{sec:¿Que es PictorSale?}{{1.1.1}{1}}
\@writefile{toc}{\contentsline {subsection}{\numberline {1.1.2}Motivación}{3}{}\protected@file@percent }
\newlabel{sec:motivacion}{{1.1.2}{3}}
\@writefile{toc}{\contentsline {subsection}{\numberline {1.1.3}Diferencias con otras Apps}{4}{}\protected@file@percent }
\newlabel{sec:Diferencias con otras Apps}{{1.1.3}{4}}
\@writefile{toc}{\contentsline {subsection}{\numberline {1.1.4}Objetivos}{5}{}\protected@file@percent }
\newlabel{sec:objetivo}{{1.1.4}{5}}
\@writefile{toc}{\contentsline {chapter}{\numberline {2}Exposición}{7}{}\protected@file@percent }
\@writefile{lof}{\addvspace {10\p@ }}
\@writefile{lot}{\addvspace {10\p@ }}
\newlabel{sec:exposicion}{{2}{7}}
\@writefile{toc}{\contentsline {section}{\numberline {2.1}Organización}{8}{}\protected@file@percent }
\newlabel{sec:Organización}{{2.1}{8}}
\@writefile{toc}{\contentsline {section}{\numberline {2.2}Paso a paso}{9}{}\protected@file@percent }
\newlabel{sec:Paso a paso}{{2.2}{9}}
\@writefile{toc}{\contentsline {section}{\numberline {2.3}Aprendizajes}{10}{}\protected@file@percent }
\newlabel{sec:aprendizajes}{{2.3}{10}}
\@writefile{toc}{\contentsline {chapter}{\numberline {3}Tecnologías y desarrollo}{11}{}\protected@file@percent }
\@writefile{lof}{\addvspace {10\p@ }}
\@writefile{lot}{\addvspace {10\p@ }}
\newlabel{Tecnologias}{{3}{11}}
\@writefile{toc}{\contentsline {section}{\numberline {3.1}Tecnologias}{11}{}\protected@file@percent }
\@writefile{toc}{\contentsline {subsection}{\numberline {3.1.1}Lenguajes y herramientas utilizados}{11}{}\protected@file@percent }
\@writefile{toc}{\contentsline {subsection}{\numberline {3.1.2}Base de datos}{11}{}\protected@file@percent }
\@writefile{toc}{\contentsline {subsection}{\numberline {3.1.3}Librerias}{12}{}\protected@file@percent }
\@writefile{toc}{\contentsline {subsection}{\numberline {3.1.4}Repositorio}{12}{}\protected@file@percent }
\@writefile{toc}{\contentsline {section}{\numberline {3.2}Desarrollo}{12}{}\protected@file@percent }
\@writefile{toc}{\contentsline {subsection}{\numberline {3.2.1}Prototype}{12}{}\protected@file@percent }
\@writefile{toc}{\contentsline {subsection}{\numberline {3.2.2}Estructura de la App }{12}{}\protected@file@percent }
\@writefile{toc}{\contentsline {subsection}{\numberline {3.2.3}Pantallas de Inicio, Registro y Traductor}{13}{}\protected@file@percent }
\@writefile{toc}{\contentsline {subsection}{\numberline {3.2.4}Almacenamiento de usuarios y pictogramas}{14}{}\protected@file@percent }
\@writefile{toc}{\contentsline {subsection}{\numberline {3.2.5}Comunicación de fragments.}{14}{}\protected@file@percent }
\@writefile{toc}{\contentsline {subsection}{\numberline {3.2.6}Refactorización de código.}{15}{}\protected@file@percent }
\@writefile{toc}{\contentsline {subsection}{\numberline {3.2.7}Problemas encontrados y soluciones técnicas.}{15}{}\protected@file@percent }
\@writefile{toc}{\contentsline {subsection}{\numberline {3.2.8}Seguridad}{15}{}\protected@file@percent }
\@writefile{toc}{\contentsline {subsection}{\numberline {3.2.9}Futuras actualizaciones}{15}{}\protected@file@percent }
\@writefile{toc}{\contentsline {chapter}{\numberline {4}Conclusiones}{17}{}\protected@file@percent }
\@writefile{lof}{\addvspace {10\p@ }}
\@writefile{lot}{\addvspace {10\p@ }}
\newlabel{sec:Conclusiones}{{4}{17}}
\@writefile{toc}{\contentsline {section}{\numberline {4.1}Grado de Consecución de los Objetivos}{17}{}\protected@file@percent }
\newlabel{sec:consecucion_objetivos}{{4.1}{17}}
\@writefile{toc}{\contentsline {section}{\numberline {4.2}Reflexión}{18}{}\protected@file@percent }
\newlabel{sec:reflexion}{{4.2}{18}}
\@writefile{toc}{\contentsline {chapter}{\numberline {5}Anexos}{19}{}\protected@file@percent }
\@writefile{lof}{\addvspace {10\p@ }}
\@writefile{lot}{\addvspace {10\p@ }}
\newlabel{chap:anexos}{{5}{19}}
\@writefile{toc}{\contentsline {section}{\numberline {5.1}Glosario}{19}{}\protected@file@percent }
\newlabel{sec:glosario}{{5.1}{19}}
\@writefile{toc}{\contentsline {section}{\numberline {5.2}Código}{20}{}\protected@file@percent }
\newlabel{sec:codigo}{{5.2}{20}}
\@writefile{toc}{\contentsline {chapter}{\numberline {6}Bibliografía}{21}{}\protected@file@percent }
\@writefile{lof}{\addvspace {10\p@ }}
\@writefile{lot}{\addvspace {10\p@ }}
\newlabel{sec:Bibliografia}{{6}{21}}
\gdef \@abspage@last{27}
